/Users/Sanket/Documents/javaWorkspace/AnomalyDetectionML/src/main/java/sanket/free/distribution/Helper/Color.java
/Users/Sanket/Documents/javaWorkspace/AnomalyDetectionML/src/main/java/sanket/free/distribution/data/ModelBuilder.java
/Users/Sanket/Documents/javaWorkspace/AnomalyDetectionML/src/main/java/sanket/free/distribution/driver/DetectionEngineDriver.java
/Users/Sanket/Documents/javaWorkspace/AnomalyDetectionML/src/main/java/sanket/free/distribution/ClassificationEngine/Classifier.java
/Users/Sanket/Documents/javaWorkspace/AnomalyDetectionML/src/main/java/sanket/free/distribution/data/DataSetBuilder.java
/Users/Sanket/Documents/javaWorkspace/AnomalyDetectionML/src/main/java/sanket/free/distribution/Helper/ColorModel.java
